<?xml version="1.0" encoding="utf-8"?>
<!-- Generator: Adobe Illustrator 16.0.0, SVG Export Plug-In . SVG Version: 6.00 Build 0)  -->
<!DOCTYPE svg PUBLIC "-//W3C//DTD SVG 1.1//EN" "http://www.w3.org/Graphics/SVG/1.1/DTD/svg11.dtd">
<svg version="1.1" id="Layer_1" xmlns="http://www.w3.org/2000/svg" xmlns:xlink="http://www.w3.org/1999/xlink" x="0px" y="0px"
	 width="360px" height="52px" viewBox="0 0 360 52" enable-background="new 0 0 360 52" xml:space="preserve">
<g>
	<line fill="#91C34B" x1="5" y1="26" x2="124" y2="26"/>
	<g>
		<path fill="#91C34B" d="M5,29.76c39.556,0,79.111,0,118.667,0c4.514,0,4.514-7,0-7c-39.556,0-79.111,0-118.667,0
			C0.485,22.76,0.485,29.76,5,29.76L5,29.76z"/>
	</g>
</g>
<g>
	<line fill="#91C34B" x1="236" y1="26" x2="355" y2="26"/>
	<g>
		<path fill="#91C34B" d="M236.334,29.76c39.556,0,79.11,0,118.666,0c4.514,0,4.514-7,0-7c-39.556,0-79.11,0-118.666,0
			C231.82,22.76,231.82,29.76,236.334,29.76L236.334,29.76z"/>
	</g>
</g>
<g>
	<path fill="#91C34B" stroke="#91C34B" stroke-miterlimit="10" d="M179.499,21.063c5.101,0,9.249-4.148,9.249-9.248
		c0-5.101-4.148-9.249-9.249-9.249c-5.1,0-9.248,4.148-9.248,9.249C170.251,16.915,174.399,21.063,179.499,21.063z"/>
	<path fill="#91C34B" stroke="#91C34B" stroke-miterlimit="10" d="M191.909,25.545c-0.003-0.001-0.011-0.003-0.015-0.005
		c-1.205-0.294-4.893-0.81-4.893-0.81c-0.416-0.129-0.861,0.091-1.011,0.503l-5.55,15.229c-0.32,0.88-1.563,0.88-1.883,0
		l-5.551-15.229c-0.121-0.332-0.434-0.54-0.77-0.54c-0.079,0-3.87,0.531-5.133,0.845c-3.449,0.857-5.625,4.25-5.625,7.784v12.672
		c0,1.899,1.54,3.438,3.439,3.438h29.158c1.898,0,3.438-1.539,3.438-3.438V33.281C197.516,29.762,195.255,26.639,191.909,25.545
		L191.909,25.545z"/>
	<path fill="#91C34B" stroke="#91C34B" stroke-miterlimit="10" d="M181.592,24.439c-0.222-0.241-0.545-0.362-0.873-0.362h-2.443
		c-0.328,0-0.652,0.122-0.874,0.362c-0.342,0.374-0.392,0.914-0.149,1.336l1.306,1.969l-0.611,5.158l1.204,3.204
		c0.117,0.322,0.572,0.322,0.689,0l1.205-3.204l-0.612-5.158l1.307-1.969C181.985,25.354,181.936,24.813,181.592,24.439z"/>
</g>
</svg>
