<?xml version="1.0" encoding="iso-8859-1"?>
<!-- Generator: Adobe Illustrator 19.0.0, SVG Export Plug-In . SVG Version: 6.00 Build 0)  -->
<svg version="1.1" id="Capa_1" xmlns="http://www.w3.org/2000/svg" xmlns:xlink="http://www.w3.org/1999/xlink" x="0px" y="0px"
	 viewBox="0 0 488.836 488.836" style="enable-background:new 0 0 488.836 488.836;" xml:space="preserve">
<g>
	<g>
		<path d="M265.826,0c-28.3,0-55.6,6.2-79.7,18c-63.8,29.8-108,94.1-108,168.7v24.7v6.2l-38.1,73.1c-9.8,18.5-0.5,33.4,20.1,33.4h18
			v0.5V356v37c0,21.6,17.5,39.1,39.1,39.1l54-8.2v54v0.5c0,6.7,6.2,11.3,13.4,10.3l194-34.5c7.2-1.5,13.4-8.2,13.4-15.9v-8.7v-6.7
			v-98.8c37-34,60.7-82.8,60.7-137.4C452.026,83.8,368.725,0,265.826,0z M265.926,322.7c-75.6,0-137.1-61.5-137.1-137.1
			s61.5-137.1,137.1-137.1s137.1,61.5,137.1,137.1S341.526,322.7,265.926,322.7z"/>
		<path d="M319.826,159.7h-0.4v-18.3c0-28.9-23.5-52.4-52.4-52.4s-52.4,23.5-52.4,52.4v18.2h-1.2c-7.6,0-13.8,6.2-13.8,13.8v76.3
			c0,7.6,6.2,13.8,13.8,13.8h106.4c7.6,0,13.8-6.2,13.8-13.8v-76.3C333.625,165.8,327.426,159.7,319.826,159.7z M274.826,215
			c-1.1,0.8-1.4,1.5-1.3,2.8c0,5.6,0,11.2,0,16.8l0,0c0.1,2.3-1.1,4.6-3.1,5.7c-4.9,2.5-9.8-1-9.8-5.6l0,0c0-5.6,0-11.2,0-16.8
			c0-1.1-0.2-1.9-1.2-2.6c-5.1-3.7-6.7-10.1-4.2-15.7c2.5-5.5,8.5-8.7,14.2-7.5c6.3,1.3,10.7,6.4,10.8,12.7
			C280.125,208.9,278.326,212.5,274.826,215z M296.526,159.7h-59v-18.3c0-16.3,13.2-29.5,29.5-29.5s29.5,13.2,29.5,29.5V159.7z"/>
	</g>
</g>
<g>
</g>
<g>
</g>
<g>
</g>
<g>
</g>
<g>
</g>
<g>
</g>
<g>
</g>
<g>
</g>
<g>
</g>
<g>
</g>
<g>
</g>
<g>
</g>
<g>
</g>
<g>
</g>
<g>
</g>
</svg>
