<?xml version="1.0" encoding="utf-8"?>
<!-- Generator: Adobe Illustrator 16.0.0, SVG Export Plug-In . SVG Version: 6.00 Build 0)  -->
<!DOCTYPE svg PUBLIC "-//W3C//DTD SVG 1.1//EN" "http://www.w3.org/Graphics/SVG/1.1/DTD/svg11.dtd">
<svg version="1.1" id="Layer_1" xmlns="http://www.w3.org/2000/svg" xmlns:xlink="http://www.w3.org/1999/xlink" x="0px" y="0px"
	 width="140px" height="110px" viewBox="-26 0 140 110" enable-background="new -26 0 140 110" xml:space="preserve">
<g>
	<path fill="#282828" d="M41.45,93.695c-1.827,5.977-7.411,10.431-16.598,13.232c-0.293,0.092-0.59,0.135-0.884,0.135
		c-1.292,0-2.491-0.838-2.888-2.14c-0.486-1.597,0.411-3.284,2.008-3.771c7.146-2.182,11.381-5.284,12.583-9.225
		c0.49-1.595,2.176-2.494,3.771-2.004C41.04,90.412,41.938,92.102,41.45,93.695z"/>
	<path fill="#282828" d="M26.708,90.682c0-1.668-1.354-3.021-3.021-3.021c-6.451,0-11.703-5.248-11.703-11.701V46.915
		c0-1.218,0.068-2.443,0.198-3.646c0.18-1.656-1.021-3.148-2.678-3.327c-1.661-0.18-3.149,1.021-3.329,2.68
		c-0.153,1.413-0.229,2.86-0.229,4.292v29.044c0,9.783,7.957,17.742,17.741,17.742C25.354,93.701,26.708,92.35,26.708,90.682z"/>
	<path fill="#282828" d="M45.916,6.947c-5.106,0-10.089,0.962-14.811,2.858c-1.548,0.622-2.298,2.381-1.674,3.928
		c0.622,1.549,2.378,2.3,3.928,1.676c4-1.606,8.226-2.421,12.559-2.421c18.707,0,33.93,15.218,33.93,33.928v29.043
		c0,6.453-5.25,11.702-11.701,11.702c-1.67,0-3.021,1.353-3.021,3.021s1.354,3.021,3.021,3.021c9.779,0,17.742-7.957,17.742-17.742
		V46.916C85.889,24.877,67.955,6.947,45.916,6.947z"/>
	<path fill="#91C34B" d="M10.068,29.605c-0.899,1.405-0.488,3.273,0.92,4.172c0.504,0.32,1.066,0.474,1.622,0.474
		c0.997,0,1.973-0.493,2.549-1.396l8.074-12.636c0.591-0.93,0.631-2.109,0.103-3.077c-0.532-0.969-1.546-1.569-2.649-1.569H10.555
		l4.974-8.026c0.876-1.417,0.441-3.28-0.977-4.159c-1.418-0.877-3.28-0.441-4.158,0.977L2.564,17.004
		c-0.577,0.93-0.604,2.101-0.072,3.059c0.533,0.958,1.542,1.55,2.64,1.55h10.039L10.068,29.605z"/>
	<path fill="#282828" d="M71.311,54.446c0-4.688-0.75-9.012-2.227-12.852c-0.041-0.115-0.09-0.227-0.146-0.335
		c-0.189-0.384-0.459-0.708-0.773-0.968c-0.254-0.208-0.535-0.372-0.834-0.487c-0.535-0.205-1.129-0.26-1.715-0.134
		c-0.23,0.05-0.455,0.125-0.672,0.23c-0.176,0.083-0.338,0.18-0.486,0.291c-4.41,3.053-11.139,4.81-18.471,4.826
		c-1.67,0.003-3.018,1.355-3.016,3.025c0.003,1.666,1.354,3.013,3.021,3.013c0.002,0,0.004,0,0.006,0
		c6.873-0.013,13.387-1.41,18.482-3.908c0.523,2.262,0.787,4.705,0.787,7.3c0,9.11-4.666,17.491-12.178,21.87
		c-2.926,1.707-5.137,2.47-7.174,2.474c-2.036-0.004-4.248-0.767-7.171-2.474c-7.513-4.379-12.181-12.76-12.181-21.87
		c0-2.593,0.265-5.033,0.791-7.293c0.559,0.273,1.132,0.535,1.726,0.783l0.303,0.128c2.023,0.851,3.486,1.465,5.17,0.747
		c1.655-0.706,2.22-2.175,2.875-3.88c0.138-0.361,0.296-0.773,0.483-1.237c0.801-1.982,1.679-4.423,2.003-5.559
		c0.455-1.604-0.478-3.274-2.08-3.729c-1.607-0.457-3.277,0.474-3.733,2.08c-0.232,0.826-1.008,3.011-1.792,4.945
		c-0.166,0.414-0.311,0.79-0.441,1.125c-0.05-0.019-0.096-0.041-0.144-0.06l-0.31-0.129c-1.503-0.631-2.861-1.362-4.037-2.175
		c-0.148-0.108-0.306-0.205-0.475-0.288c-0.223-0.106-0.454-0.187-0.69-0.235c-0.588-0.126-1.19-0.067-1.729,0.145
		c-0.29,0.115-0.564,0.275-0.811,0.478c-0.316,0.259-0.581,0.583-0.775,0.967c-0.057,0.11-0.107,0.223-0.149,0.337
		c-1.475,3.841-2.225,8.164-2.225,12.852c0,11.253,5.817,21.632,15.181,27.09c3.898,2.271,7.044,3.286,10.208,3.294
		c0.002,0,0.006,0,0.008,0s0.006,0,0.01,0c3.158-0.008,6.307-1.022,10.205-3.294C65.494,76.078,71.311,65.697,71.311,54.446z"/>
	<path fill="#282828" d="M68.566,101.152c-7.145-2.182-11.381-5.283-12.582-9.223c-0.49-1.596-2.178-2.492-3.773-2.005
		c-1.596,0.486-2.494,2.177-2.006,3.771c1.828,5.977,7.412,10.431,16.6,13.234c0.293,0.09,0.592,0.135,0.883,0.135
		c1.293,0,2.492-0.84,2.889-2.142C71.063,103.327,70.164,101.639,68.566,101.152z"/>
</g>
</svg>
